3 Data Wrangling | R Cheat Sheet
…
long_data <- 
    read_csv("data/SAFI_clean.csv", na = "NULL") %>%
    select(key_ID,no_membrs ) %>%
    uncount(no_membrs) %>%
    group_by(key_ID) %>% 
    mutate(member_ID = row_number()) %>%
    rowwise() %>%
    mutate(female = sample(0:1,1),
           age = case_when(member_ID == 1 ~ sample(18:86,1),
                          .default = sample(0:86,1))) %>%
    ungroup()

long_data

## # A tibble: 942 × 4
##    key_ID member_ID female   age
##     <dbl>     <int>  <int> <int>
##  1      1         1      1    32
##  2      1         2      1    67
##  3      1         3      0    27
##  4      2         1      0    55
##  5      2         2      1    74
##  6      2         3      0    63
##  7      2         4      1    74
##  8      2         5      0    75
##  9      2         6      1    74
## 10      2         7      1    81
## # ℹ 932 more rows
…
sample() to get random integers.

case_when() to make sure the age is never lower than 18 if the member_id is 1 (presumably the household head).

3.2.2 Pivoting long to wide

To merge this into our main data set, we need to make sure we go back to having 1 observation per household. We will do this by using pivot_wider():

wide_data <-
    long_data %>% 
    pivot_wider(names_from = member_ID,
                values_from = !ends_with("_ID"))
wide_data

## # A tibble: 131 × 39
##    key_ID female_1 female_2 female_3 female_4 female_5 female_6 female_7
##     <dbl>    <int>    <int>    <int>    <int>    <int>    <int>    <int>
##  1      1        1        1        0       NA       NA       NA       NA
##  2      2        0        1        0        1        0        1        1
##  3      3        1        1        1        1        0        1        0
##  4      4        1        1        0        1        1        1        0
##  5      5        0        1        1        1        1        1        1
##  6      6        0        0        1       NA       NA       NA       NA
##  7      7        0        0        1        1        0        1       NA
##  8      8        1        1        1        1        0        1        1
##  9      9        0        1        1        1        1        0        0
## 10     10        1        0        1        1        1        0        0
## # ℹ 121 more rows
## # ℹ 31 more variables: female_8 <int>, female_9 <int>, female_10 <int>,
## #   female_11 <int>, female_12 <int>, female_13 <int>, female_14 <int>,
## #   female_15 <int>, female_16 <int>, female_17 <int>, female_18 <int>,
## #   female_19 <int>, age_1 <int>, age_2 <int>, age_3 <int>, age_4 <int>,
## #   age_5 <int>, age_6 <int>, age_7 <int>, age_8 <int>, age_9 <int>,
## #   age_10 <int>, age_11 <int>, age_12 <int>, age_13 <int>, age_14 <int>, …
…
3.2.3 Pivoting wide to long

If we had started with wide data, and had wanted to transform to
long data, we’d have to use pivot_longer():

recreated_long_data <-
    wide_data %>%
    pivot_longer(!key_ID, 
                 names_to = c(".value", "member_ID"),
                 names_sep="_",
                 values_drop_na = TRUE)
long_data

## # A tibble: 942 × 4
##    key_ID member_ID female   age
##     <dbl>     <int>  <int> <int>
##  1      1         1      1    32
##  2      1         2      1    67
##  3      1         3      0    27
##  4      2         1      0    55
##  5      2         2      1    74
##  6      2         3      0    63
##  7      2         4      1    74
##  8      2         5      0    75
##  9      2         6      1    74
## 10      2         7      1    81
## # ℹ 932 more rows
…
right_join() will keep areas B and C.

full_join() will keep areas A, B, and C.

In our case, the data sets match perfectly, i.e. we only have an area B, so there is no practical difference. I chose left_join() so the number of
observations in my household survey is guaranteed to remain the same.
To merge the roster to the household data, we use the join_by function:

interviews %>%
    left_join(wide_data)

## Joining with `by = join_by(key_ID)`

## # A tibble: 131 × 52
##    key_ID village  interview_date      no_membrs years_liv respondent_wall_type
##     <dbl> <chr>    <dttm>                  <dbl>     <dbl> <chr>               
##  1      1 God      2016-11-17 00:00:00         3         4 muddaub             
##  2      2 God      2016-11-17 00:00:00         7         9 muddaub             
##  3      3 God      2016-11-17 00:00:00        10        15 burntbricks         
##  4      4 God      2016-11-17 00:00:00         7         6 burntbricks         
##  5      5 God      2016-11-17 00:00:00         7        40 burntbricks         
##  6      6 God      2016-11-17 00:00:00         3         3 muddaub             
##  7      7 God      2016-11-17 00:00:00         6        38 muddaub             
##  8      8 Chirodzo 2016-11-16 00:00:00        12        70 burntbricks         
##  9      9 Chirodzo 2016-11-16 00:00:00         8         6 burntbricks         
## 10     10 Chirodzo 2016-12-16 00:00:00        12        23 burntbricks         
## # ℹ 121 more rows
## # ℹ 46 more variables: rooms <dbl>, memb_assoc <chr>, affect_conflicts <chr>,
## #   liv_count <dbl>, items_owned <chr>, no_meals <dbl>, months_lack_food <chr>,
## #   instanceID <chr>, female_1 <int>, female_2 <int>, female_3 <int>,
## #   female_4 <int>, female_5 <int>, female_6 <int>, female_7 <int>,
## #   female_8 <int>, female_9 <int>, female_10 <int>, female_11 <int>,
## #   female_12 <int>, female_13 <int>, female_14 <int>, female_15 <int>, …
Note that we didn’t specify identifiers, like we would in Stata. R
assumed that the variables that appear in both data frames are the
identifiers, in this case key_ID. Use the by option to change this.

Going the other way around, joining the household data to the
roster data, is equally easy:

long_data %>%
    left_join(
        interviews %>% 
            select(key_ID,village,interview_date))

## Joining with `by = join_by(key_ID)`

## # A tibble: 942 × 6
##    key_ID member_ID female   age village interview_date     
##     <dbl>     <int>  <int> <int> <chr>   <dttm>             
##  1      1         1      1    32 God     2016-11-17 00:00:00
##  2      1         2      1    67 God     2016-11-17 00:00:00
##  3      1         3      0    27 God     2016-11-17 00:00:00
##  4      2         1      0    55 God     2016-11-17 00:00:00
##  5      2         2      1    74 God     2016-11-17 00:00:00
##  6      2         3      0    63 God     2016-11-17 00:00:00
##  7      2         4      1    74 God     2016-11-17 00:00:00
##  8      2         5      0    75 God     2016-11-17 00:00:00
##  9      2         6      1    74 God     2016-11-17 00:00:00
## 10      2         7      1    81 God     2016-11-17 00:00:00
## # ℹ 932 more rows

Note that here I only merged in two variables, by using select and a pipe within the left_join() function.

3.4 Summarizing over groups (or collapsing data)

To compute summary statistics (sums, counts, means etc.) over a group,
we use the group_by() and summarize() functions. For example, to
compute the household size, number of women and average age in each household:

long_data %>%
    group_by(key_ID) %>%
    summarize(hh_size = n(), num_women = sum(female), mean_age = mean(age))    

## # A tibble: 131 × 4
##    key_ID hh_size num_women mean_age
##     <dbl>   <int>     <int>    <dbl>
##  1      1       3         2     42  
##  2      2       7         4     70.9
##  3      3      10         7     54.6
##  4      4       7         5     55.1
##  5      5       7         6     31.6
##  6      6       3         1     70.7
##  7      7       6         3     55.7
##  8      8      12         8     39.9
##  9      9       8         4     29.5
## 10     10      12         6     51.6
## # ℹ 121 more rows
…
wide_data %>%
    rowwise() %>%
    mutate(mean_age = mean(c_across(starts_with("age_")),
                           na.rm=TRUE),

           num_women = sum(c_across(starts_with("female_")),
                           na.rm=TRUE),
           hh_size = sum(!is.na(c_across(starts_with("female_"))),
                         na.rm=TRUE)) %>%
    select(key_ID,hh_size,num_women,mean_age) %>%
    ungroup()

## # A tibble: 131 × 4
##    key_ID hh_size num_women mean_age
##     <dbl>   <int>     <int>    <dbl>
##  1      1       3         2     42  
##  2      2       7         4     70.9
##  3      3      10         7     54.6
##  4      4       7         5     55.1
##  5      5       7         6     31.6
##  6      6       3         1     70.7
##  7      7       6         3     55.7
##  8      8      12         8     39.9
##  9      9       8         4     29.5
## 10     10      12         6     51.6
## # ℹ 121 more rows
…
First, you can use str_match() for each possible answer:

split_without_loop <- 
    read_csv("data/SAFI_clean.csv", na = "NULL") %>%
    select(items_owned) %>%
    mutate(items_owned = ifelse(is.na(items_owned),"None",items_owned), 
           owns_bicycle = str_count(.data$items_owned,"bicycle"), 
           owns_television = str_count(.data$items_owned,"television")) 
           #etc etc.

split_without_loop

## # A tibble: 131 × 3
##    items_owned                                      owns_bicycle owns_television
##    <chr>                                                   <int>           <int>
##  1 bicycle;television;solar_panel;table                        1               1
##  2 cow_cart;bicycle;radio;cow_plough;solar_panel;s…            1               0
##  3 solar_torch                                                 0               0
##  4 bicycle;radio;cow_plough;solar_panel;mobile_pho…            1               0
##  5 motorcyle;radio;cow_plough;mobile_phone                     0               0
##  6 None                                                        0               0
##  7 motorcyle;cow_plough                                        0               0
##  8 motorcyle;bicycle;television;radio;cow_plough;s…            1               1
##  9 television;solar_panel;solar_torch                          0               1
## 10 cow_cart;motorcyle;bicycle;television;radio;cow…            1               1
## # ℹ 121 more rows
…
#and add to the data each iteration of a loop
for (i in items){
    split_with_loop <-
        split_with_loop %>%
        mutate("owns_{i}" := str_count(.data$items_owned,i))
}

split_with_loop

## # A tibble: 131 × 18
##    items_owned          owns_bicycle owns_television owns_solar_panel owns_table
##    <chr>                       <int>           <int>            <int>      <int>
##  1 bicycle;television;…            1               1                1          1
##  2 cow_cart;bicycle;ra…            1               0                1          1
##  3 solar_torch                     0               0                0          0
##  4 bicycle;radio;cow_p…            1               0                1          0
##  5 motorcyle;radio;cow…            0               0                0          0
##  6 None                            0               0                0          0
##  7 motorcyle;cow_plough            0               0                0          0
##  8 motorcyle;bicycle;t…            1               1                1          1
##  9 television;solar_pa…            0               1                1          0
## 10 cow_cart;motorcyle;…            1               1                1          1
## # ℹ 121 more rows
## # ℹ 13 more variables: owns_cow_cart <int>, owns_radio <int>,
## #   owns_cow_plough <int>, owns_solar_torch <int>, owns_mobile_phone <int>,
## #   owns_motor_cycle <int>, owns_fridge <int>, owns_electricity <int>,
## #   owns_sofa_set <int>, owns_lorry <int>, owns_sterio <int>,
## #   owns_computer <int>, owns_car <int>
…
## Rows: 131 Columns: 14
## ── Column specification ────────────────────────────────────────────────────────
## Delimiter: ","
## chr  (7): village, respondent_wall_type, memb_assoc, affect_conflicts, items...
## dbl  (6): key_ID, no_membrs, years_liv, rooms, liv_count, no_meals
## dttm (1): interview_date
## 
## ℹ Use `spec()` to retrieve the full column specification for this data.
## ℹ Specify the column types or set `show_col_types = FALSE` to quiet this message.

## # A tibble: 131 × 19
##    key_ID owns_bicycle owns_television owns_solar_panel owns_table owns_cow_cart
##     <dbl>        <dbl>           <dbl>            <dbl>      <dbl>         <dbl>
##  1      1            1               1                1          1             0
##  2      2            1               0                1          1             1
##  3      3            0               0                0          0             0
##  4      4            1               0                1          0             0
##  5      5            0               0                0          0             0
##  6      6            0               0                0          0             0
##  7      7            0               0                0          0             0
##  8      8            1               1                1          1             0
##  9      9            0               1                1          0             0
## 10     10            1               1                1          1             1
## # ℹ 121 more rows
## # ℹ 13 more variables: owns_radio <dbl>, owns_cow_plough <dbl>,
## #   owns_solar_torch <dbl>, owns_mobile_phone <dbl>, owns_motorcyle <dbl>,
## #   owns_None <dbl>, owns_fridge <dbl>, owns_electricity <dbl>,
## #   owns_sofa_set <dbl>, owns_lorry <dbl>, owns_sterio <dbl>,
## #   owns_computer <dbl>, owns_car <dbl>
…
