Data Wrangling | Field guide to reproducible and reusable social science with R:
…
I could use separate_wider_delim(),
pivot_wider(), and filter(!is.na()) to address those, but that’s not elegant
at all.
I can do all of this within the pivot_longer() call by using the names_to
and names_sep options:

wide_data %>%
    pivot_longer(!key_ID,
                 names_to = c(".value", "member_ID"),
                 names_sep = "_",
                 values_drop_na = TRUE,
                 names_transform = list(member_ID = as.integer))

## # A tibble: 942 × 4
##    key_ID member_ID female   age
##     <dbl>     <int>  <int> <dbl>
##  1      1         1      1    77
##  2      1         2      1    72
##  3      1         3      0    83
##  4      2         1      1    86
##  5      2         2      0    73
##  6      2         3      1    10
##  7      2         4      1    75
##  8      2         5      1    63
##  9      2         6      1    51
## 10      2         7      1    70
## # ℹ 932 more rows
…
read_csv(here("data/SAFI_clean.csv"), na = "NULL") %>%
    left_join(wide_data)

## Rows: 131 Columns: 14
## ── Column specification ────────────────────────────────────────────────────────
## Delimiter: ","
## chr  (7): village, respondent_wall_type, memb_assoc, affect_conflicts, items...
## dbl  (6): key_ID, no_membrs, years_liv, rooms, liv_count, no_meals
## dttm (1): interview_date
## 
## ℹ Use `spec()` to retrieve the full column specification for this data.
## ℹ Specify the column types or set `show_col_types = FALSE` to quiet this message.
## Joining with `by = join_by(key_ID)`

## # A tibble: 131 × 52
##    key_ID village  interview_date      no_membrs years_liv respondent_wall_type
##     <dbl> <chr>    <dttm>                  <dbl>     <dbl> <chr>               
##  1      1 God      2016-11-17 00:00:00         3         4 muddaub             
##  2      2 God      2016-11-17 00:00:00         7         9 muddaub             
##  3      3 God      2016-11-17 00:00:00        10        15 burntbricks         
##  4      4 God      2016-11-17 00:00:00         7         6 burntbricks         
##  5      5 God      2016-11-17 00:00:00         7        40 burntbricks         
##  6      6 God      2016-11-17 00:00:00         3         3 muddaub             
##  7      7 God      2016-11-17 00:00:00         6        38 muddaub             
##  8      8 Chirodzo 2016-11-16 00:00:00        12        70 burntbricks         
##  9      9 Chirodzo 2016-11-16 00:00:00         8         6 burntbricks         
## 10     10 Chirodzo 2016-12-16 00:00:00        12        23 burntbricks         
## # ℹ 121 more rows
## # ℹ 46 more variables: rooms <dbl>, memb_assoc <chr>, affect_conflicts <chr>,
## #   liv_count <dbl>, items_owned <chr>, no_meals <dbl>, months_lack_food <chr>,
## #   instanceID <chr>, female_1 <int>, age_1 <dbl>, female_2 <int>, age_2 <dbl>,
## #   female_3 <int>, age_3 <dbl>, female_4 <int>, age_4 <dbl>, female_5 <int>,
## #   age_5 <dbl>, female_6 <int>, age_6 <dbl>, female_7 <int>, age_7 <dbl>,
## #   female_8 <int>, age_8 <dbl>, female_9 <int>, age_9 <dbl>, …
…
## Rows: 131 Columns: 14
## ── Column specification ────────────────────────────────────────────────────────
## Delimiter: ","
## chr  (7): village, respondent_wall_type, memb_assoc, affect_conflicts, items...
## dbl  (6): key_ID, no_membrs, years_liv, rooms, liv_count, no_meals
## dttm (1): interview_date
## 
## ℹ Use `spec()` to retrieve the full column specification for this data.
## ℹ Specify the column types or set `show_col_types = FALSE` to quiet this message.
## Joining with `by = join_by(key_ID)`

## # A tibble: 942 × 6
##    key_ID member_ID female   age village interview_date     
##     <dbl>     <int>  <int> <dbl> <chr>   <dttm>             
##  1      1         1      1    77 God     2016-11-17 00:00:00
##  2      1         2      1    72 God     2016-11-17 00:00:00
##  3      1         3      0    83 God     2016-11-17 00:00:00
##  4      2         1      1    86 God     2016-11-17 00:00:00
##  5      2         2      0    73 God     2016-11-17 00:00:00
##  6      2         3      1    10 God     2016-11-17 00:00:00
##  7      2         4      1    75 God     2016-11-17 00:00:00
##  8      2         5      1    63 God     2016-11-17 00:00:00
##  9      2         6      1    51 God     2016-11-17 00:00:00
## 10      2         7      1    70 God     2016-11-17 00:00:00
## # ℹ 932 more rows
…
Summarizing over groups (or collapsing data)

Another way to transform individual-level data to household-level data is to compute summary statistics (sums, counts, means etc.).
For this, we use the group_by() and summarize() functions.
For example,
to compute the household size, number of women and average age in each household.
But before doing anything, I make sure the -99s in the age variable are treated
as missing, using a simple mutate() to conver them to NA.

long_data %>% 
    group_by(key_ID) %>%
    mutate(age = if_else(age == -99,NA,age)) %>%
    summarize(hh_size = n(), num_women = sum(female), mean_age = mean(age, na.rm = TRUE))

## # A tibble: 131 × 4
##    key_ID hh_size num_women mean_age
##     <dbl>   <int>     <int>    <dbl>
##  1      1       3         2     77.3
##  2      2       7         6     61.1
##  3      3      10         0     57.5
##  4      4       7         1     49.4
##  5      5       7         4     30.3
##  6      6       3         2     31.3
##  7      7       6         4     26.3
##  8      8      12         6     47.1
##  9      9       8         4     30.6
## 10     10      12         8     39.3
## # ℹ 121 more rows
…
          age_8 = if_else(age_8 == -99,NA,age_8),
          age_9 = if_else(age_9 == -99,NA,age_9),
          age_10 = if_else(age_10 == -99,NA,age_10),
          age_11 = if_else(age_11 == -99,NA,age_11),
          age_12 = if_else(age_12 == -99,NA,age_12),
          age_13 = if_else(age_13 == -99,NA,age_13),
          age_14 = if_else(age_14 == -99,NA,age_14),
          age_15 = if_else(age_15 == -99,NA,age_15),
          age_16 = if_else(age_16 == -99,NA,age_16),
          age_17 = if_else(age_17 == -99,NA,age_17),
          age_18 = if_else(age_18 == -99,NA,age_18),
          age_19 = if_else(age_19 == -99,NA,age_19)
  )

## # A tibble: 131 × 39
##    key_ID female_1 age_1 female_2 age_2 female_3 age_3 female_4 age_4 female_5
##     <dbl>    <int> <dbl>    <int> <dbl>    <int> <dbl>    <int> <dbl>    <int>
##  1      1        1    77        1    72        0    83       NA    NA       NA
##  2      2        1    86        0    73        1    10        1    75        1
##  3      3        0    41        0    72        0     0        0    85        0
##  4      4        0    69        0    25        0    49        0    30        1
##  5      5        1    25        1    17        1    22        1    62        0
##  6      6        1    44        1    37        0    13       NA    NA       NA
##  7      7        0    23        1     8        0     5        1    60        1
##  8      8        1    63        1    57        0    14        0    44        1
##  9      9        1    28        0    64        0    39        1    28        0
## 10     10        1    56        0    60        1     5        1    77        0
## # ℹ 121 more rows
## # ℹ 29 more variables: age_5 <dbl>, female_6 <int>, age_6 <dbl>,
## #   female_7 <int>, age_7 <dbl>, female_8 <int>, age_8 <dbl>, female_9 <int>,
## #   age_9 <dbl>, female_10 <int>, age_10 <dbl>, female_11 <int>, age_11 <dbl>,
## #   female_12 <int>, age_12 <dbl>, female_13 <int>, age_13 <dbl>,
## #   female_14 <int>, age_14 <dbl>, female_15 <int>, age_15 <dbl>,
## #   female_16 <int>, age_16 <dbl>, female_17 <int>, age_17 <dbl>, …
…
Instead, I use the across() function, which takes two arguments: a column specifcation
(for which I use tidy select
syntax), and a function. It will then apply the function to all columns:

cleanmissing <- function(x) {
  if_else(x == -99, NA, x)
}

wide_data %>%
  mutate(across(.cols = starts_with("age_"),
                .fns = cleanmissing))

## # A tibble: 131 × 39
##    key_ID female_1 age_1 female_2 age_2 female_3 age_3 female_4 age_4 female_5
##     <dbl>    <int> <dbl>    <int> <dbl>    <int> <dbl>    <int> <dbl>    <int>
##  1      1        1    77        1    72        0    83       NA    NA       NA
##  2      2        1    86        0    73        1    10        1    75        1
##  3      3        0    41        0    72        0     0        0    85        0
##  4      4        0    69        0    25        0    49        0    30        1
##  5      5        1    25        1    17        1    22        1    62        0
##  6      6        1    44        1    37        0    13       NA    NA       NA
##  7      7        0    23        1     8        0     5        1    60        1
##  8      8        1    63        1    57        0    14        0    44        1
##  9      9        1    28        0    64        0    39        1    28        0
## 10     10        1    56        0    60        1     5        1    77        0
## # ℹ 121 more rows
## # ℹ 29 more variables: age_5 <dbl>, female_6 <int>, age_6 <dbl>,
## #   female_7 <int>, age_7 <dbl>, female_8 <int>, age_8 <dbl>, female_9 <int>,
## #   age_9 <dbl>, female_10 <int>, age_10 <dbl>, female_11 <int>, age_11 <dbl>,
## #   female_12 <int>, age_12 <dbl>, female_13 <int>, age_13 <dbl>,
## #   female_14 <int>, age_14 <dbl>, female_15 <int>, age_15 <dbl>,
## #   female_16 <int>, age_16 <dbl>, female_17 <int>, age_17 <dbl>, …
…
You can use across(.cols = where(is.numeric), .fn = ...) to apply a function to all numeric variables.

You can also combine across() with summarize() to summarize multiple variables more easily. See the
section on faceting for an example.

You can also define the function in line, if you don’t plan on using the function
anywhere else:

wide_data %>%
    mutate(across(.cols = starts_with("age_"),
                  .fns = function(var) if_else(var == -99,NA, var)))

## # A tibble: 131 × 39
##    key_ID female_1 age_1 female_2 age_2 female_3 age_3 female_4 age_4 female_5
##     <dbl>    <int> <dbl>    <int> <dbl>    <int> <dbl>    <int> <dbl>    <int>
##  1      1        1    77        1    72        0    83       NA    NA       NA
##  2      2        1    86        0    73        1    10        1    75        1
##  3      3        0    41        0    72        0     0        0    85        0
##  4      4        0    69        0    25        0    49        0    30        1
##  5      5        1    25        1    17        1    22        1    62        0
##  6      6        1    44        1    37        0    13       NA    NA       NA
##  7      7        0    23        1     8        0     5        1    60        1
##  8      8        1    63        1    57        0    14        0    44        1
##  9      9        1    28        0    64        0    39        1    28        0
## 10     10        1    56        0    60        1     5        1    77        0
## # ℹ 121 more rows
## # ℹ 29 more variables: age_5 <dbl>, female_6 <int>, age_6 <dbl>,
## #   female_7 <int>, age_7 <dbl>, female_8 <int>, age_8 <dbl>, female_9 <int>,
## #   age_9 <dbl>, female_10 <int>, age_10 <dbl>, female_11 <int>, age_11 <dbl>,
## #   female_12 <int>, age_12 <dbl>, female_13 <int>, age_13 <dbl>,
## #   female_14 <int>, age_14 <dbl>, female_15 <int>, age_15 <dbl>,
## #   female_16 <int>, age_16 <dbl>, female_17 <int>, age_17 <dbl>, …
…
To compute means and sums across rows, use rowSums() and rowMeans():

wide_data %>%
    mutate(across(.cols = starts_with("age_"),
                  .fn = ~if_else(.x == -99,NA,.x))) %>%
    mutate(mean_age = rowMeans(across(starts_with("age_")),
                           na.rm=TRUE),
           num_women =  rowSums(across(starts_with("female_")),
                            na.rm=TRUE),
           hh_size = rowSums(!is.na(across(starts_with("female_"))))) %>%
    select(key_ID,hh_size,num_women, mean_age) %>%
    ungroup()

## # A tibble: 131 × 4
##    key_ID hh_size num_women mean_age
##     <dbl>   <dbl>     <dbl>    <dbl>
##  1      1       3         2     77.3
##  2      2       7         6     61.1
##  3      3      10         0     57.5
##  4      4       7         1     49.4
##  5      5       7         4     30.3
##  6      6       3         2     31.3
##  7      7       6         4     26.3
##  8      8      12         6     47.1
##  9      9       8         4     30.6
## 10     10      12         8     39.3
## # ℹ 121 more rows
If you want to compute something other than means or sums, you can use c_across()
to get a bunch of variables into any function you want:

wide_data %>%
    mutate(across(.cols = starts_with("age_"),
                  .fn = ~if_else(.x == -99,NA,.x))) %>%
    rowwise() %>%
    mutate(max_age = max(c_across(starts_with("age_")),
                           na.rm=TRUE),
           sd_age =  sd(c_across(starts_with("age_")),
                            na.rm=TRUE)) %>%
    select(key_ID,max_age,sd_age) %>%
    ungroup()

## # A tibble: 131 × 3
##    key_ID max_age sd_age
##     <dbl>   <dbl>  <dbl>
##  1      1      83   5.51
##  2      2      86  25.0 
##  3      3      85  28.3 
##  4      4      84  29.6 
##  5      5      62  19.3 
##  6      6      44  16.3 
##  7      7      60  26.2 
##  8      8      80  20.3 
##  9      9      64  19.5 
## 10     10      77  24.5 
## # ℹ 121 more rows
…
