3. Power Analysis using DeclareDesign | Reproducible and reusable social science with R: a field guide
…
Diagnosing Design and calculating power

If you want to browse a version of the data created by your design,
use the draw_data() function. This is useful to examine the properties of the data.

draw_data(design_simple) %>%
  as_tibble()

## # A tibble: 290 × 7
##    village NFertInput ID    Y_Z_0 Y_Z_1     Z     Y
##      <int>      <dbl> <chr> <dbl> <dbl> <int> <dbl>
##  1       1          5 001       5    75     1    75
##  2       1         26 002      26    96     1    96
##  3       1         40 003      40   110     1   110
##  4       1          0 004       0    70     1    70
##  5       1         10 005      10    80     1    80
##  6       1         25 006      25    95     1    95
##  7       1         25 007      25    95     1    95
##  8       1         60 008      60   130     1   130
##  9       1          0 009       0    70     1    70
## 10       1          0 010       0    70     1    70
## # ℹ 280 more rows
…
