Functions | R Cheat Sheet
…
add_number_column <- function(data,number=2) {
    #This functions takes a data frame, and returns the same data frame,
    #but with an exta column of 2sas its first variable. 
    #The user can specify a number other than 2 using the num argument
    #This is great if you want a column of twos as the first variable
    #of your data set.
    data %>%
        mutate(bestvar = number) %>%
        select(bestvar,everything())
}

read_csv(here("data/SAFI_clean.csv"),na = "NULL") %>%
add_number_column() 

## # A tibble: 131 × 15
##    bestvar key_ID village  interview_date      no_membrs years_liv
##      <dbl>  <dbl> <chr>    <dttm>                  <dbl>     <dbl>
##  1       2      1 God      2016-11-17 00:00:00         3         4
##  2       2      2 God      2016-11-17 00:00:00         7         9
##  3       2      3 God      2016-11-17 00:00:00        10        15
##  4       2      4 God      2016-11-17 00:00:00         7         6
##  5       2      5 God      2016-11-17 00:00:00         7        40
##  6       2      6 God      2016-11-17 00:00:00         3         3
##  7       2      7 God      2016-11-17 00:00:00         6        38
##  8       2      8 Chirodzo 2016-11-16 00:00:00        12        70
##  9       2      9 Chirodzo 2016-11-16 00:00:00         8         6
## 10       2     10 Chirodzo 2016-12-16 00:00:00        12        23
## # ℹ 121 more rows
## # ℹ 9 more variables: respondent_wall_type <chr>, rooms <dbl>,
## #   memb_assoc <chr>, affect_conflicts <chr>, liv_count <dbl>,
## #   items_owned <chr>, no_meals <dbl>, months_lack_food <chr>, instanceID <chr>

read_csv(here("data/SAFI_clean.csv"),na = "NULL") %>%
add_number_column(4) 

## # A tibble: 131 × 15
##    bestvar key_ID village  interview_date      no_membrs years_liv
##      <dbl>  <dbl> <chr>    <dttm>                  <dbl>     <dbl>
##  1       4      1 God      2016-11-17 00:00:00         3         4
##  2       4      2 God      2016-11-17 00:00:00         7         9
##  3       4      3 God      2016-11-17 00:00:00        10        15
##  4       4      4 God      2016-11-17 00:00:00         7         6
##  5       4      5 God      2016-11-17 00:00:00         7        40
##  6       4      6 God      2016-11-17 00:00:00         3         3
##  7       4      7 God      2016-11-17 00:00:00         6        38
##  8       4      8 Chirodzo 2016-11-16 00:00:00        12        70
##  9       4      9 Chirodzo 2016-11-16 00:00:00         8         6
## 10       4     10 Chirodzo 2016-12-16 00:00:00        12        23
## # ℹ 121 more rows
## # ℹ 9 more variables: respondent_wall_type <chr>, rooms <dbl>,
## #   memb_assoc <chr>, affect_conflicts <chr>, liv_count <dbl>,
## #   items_owned <chr>, no_meals <dbl>, months_lack_food <chr>, instanceID <chr>
…
For a technical note on why this is,
see here.
To solve this, wrap the variable in your function definition
in {{ and }}, and change the = in mutatate to :=.

add_two_to_a_column_fixed <- function(data,variable) {
    #function that adds two two a column specified by the user
    data %>%
    mutate( {{variable}} := {{variable}} + 2)
}

read_csv(here("data/SAFI_clean.csv"),na = "NULL") %>%
    add_two_to_a_column_fixed(no_membrs)

## # A tibble: 131 × 14
##    key_ID village  interview_date      no_membrs years_liv respondent_wall_type
##     <dbl> <chr>    <dttm>                  <dbl>     <dbl> <chr>               
##  1      1 God      2016-11-17 00:00:00         5         4 muddaub             
##  2      2 God      2016-11-17 00:00:00         9         9 muddaub             
##  3      3 God      2016-11-17 00:00:00        12        15 burntbricks         
##  4      4 God      2016-11-17 00:00:00         9         6 burntbricks         
##  5      5 God      2016-11-17 00:00:00         9        40 burntbricks         
##  6      6 God      2016-11-17 00:00:00         5         3 muddaub             
##  7      7 God      2016-11-17 00:00:00         8        38 muddaub             
##  8      8 Chirodzo 2016-11-16 00:00:00        14        70 burntbricks         
##  9      9 Chirodzo 2016-11-16 00:00:00        10         6 burntbricks         
## 10     10 Chirodzo 2016-12-16 00:00:00        14        23 burntbricks         
## # ℹ 121 more rows
## # ℹ 8 more variables: rooms <dbl>, memb_assoc <chr>, affect_conflicts <chr>,
## #   liv_count <dbl>, items_owned <chr>, no_meals <dbl>, months_lack_food <chr>,
## #   instanceID <chr>
…
## Rows: 131 Columns: 14
## ── Column specification ────────────────────────────────────────────────────────
## Delimiter: ","
## chr  (7): village, respondent_wall_type, memb_assoc, affect_conflicts, items...
## dbl  (6): key_ID, no_membrs, years_liv, rooms, liv_count, no_meals
## dttm (1): interview_date
## 
## ℹ Use `spec()` to retrieve the full column specification for this data.
## ℹ Specify the column types or set `show_col_types = FALSE` to quiet this message.

## # A tibble: 131 × 19
##    key_ID owns_bicycle owns_television owns_solar_panel owns_table owns_cow_cart
##     <dbl>        <dbl>           <dbl>            <dbl>      <dbl>         <dbl>
##  1      1            1               1                1          1             0
##  2      2            1               0                1          1             1
##  3      3            0               0                0          0             0
##  4      4            1               0                1          0             0
##  5      5            0               0                0          0             0
##  6      6            0               0                0          0             0
##  7      7            0               0                0          0             0
##  8      8            1               1                1          1             0
##  9      9            0               1                1          0             0
## 10     10            1               1                1          1             1
## # ℹ 121 more rows
## # ℹ 13 more variables: owns_radio <dbl>, owns_cow_plough <dbl>,
## #   owns_solar_torch <dbl>, owns_mobile_phone <dbl>, owns_motorcyle <dbl>,
## #   owns_None <dbl>, owns_fridge <dbl>, owns_electricity <dbl>,
## #   owns_sofa_set <dbl>, owns_lorry <dbl>, owns_sterio <dbl>,
## #   owns_computer <dbl>, owns_car <dbl>
…
## Rows: 131 Columns: 14
## ── Column specification ────────────────────────────────────────────────────────
## Delimiter: ","
## chr  (7): village, respondent_wall_type, memb_assoc, affect_conflicts, items...
## dbl  (6): key_ID, no_membrs, years_liv, rooms, liv_count, no_meals
## dttm (1): interview_date
## 
## ℹ Use `spec()` to retrieve the full column specification for this data.
## ℹ Specify the column types or set `show_col_types = FALSE` to quiet this message.

## # A tibble: 131 × 43
##    key_ID village  interview_date      no_membrs years_liv respondent_wall_type
##     <dbl> <chr>    <dttm>                  <dbl>     <dbl> <chr>               
##  1      1 God      2016-11-17 00:00:00         3         4 muddaub             
##  2      2 God      2016-11-17 00:00:00         7         9 muddaub             
##  3      3 God      2016-11-17 00:00:00        10        15 burntbricks         
##  4      4 God      2016-11-17 00:00:00         7         6 burntbricks         
##  5      5 God      2016-11-17 00:00:00         7        40 burntbricks         
##  6      6 God      2016-11-17 00:00:00         3         3 muddaub             
##  7      7 God      2016-11-17 00:00:00         6        38 muddaub             
##  8      8 Chirodzo 2016-11-16 00:00:00        12        70 burntbricks         
##  9      9 Chirodzo 2016-11-16 00:00:00         8         6 burntbricks         
## 10     10 Chirodzo 2016-12-16 00:00:00        12        23 burntbricks         
## # ℹ 121 more rows
## # ℹ 37 more variables: rooms <dbl>, memb_assoc <chr>, affect_conflicts <chr>,
## #   liv_count <dbl>, no_meals <dbl>, instanceID <chr>, owns_bicycle <dbl>,
## #   owns_television <dbl>, owns_solar_panel <dbl>, owns_table <dbl>,
## #   owns_cow_cart <dbl>, owns_radio <dbl>, owns_cow_plough <dbl>,
## #   owns_solar_torch <dbl>, owns_mobile_phone <dbl>, owns_motorcyle <dbl>,
## #   owns_None <dbl>, owns_fridge <dbl>, owns_electricity <dbl>, …
…
