Programming with R | R Cheat Sheet
…
## Rows: 131 Columns: 14
## ── Column specification ────────────────────────────────────────────────────────
## Delimiter: ","
## chr  (7): village, respondent_wall_type, memb_assoc, affect_conflicts, items...
## dbl  (6): key_ID, no_membrs, years_liv, rooms, liv_count, no_meals
## dttm (1): interview_date
## 
## ℹ Use `spec()` to retrieve the full column specification for this data.
## ℹ Specify the column types or set `show_col_types = FALSE` to quiet this message.

## # A tibble: 131 × 19
##    key_ID owns_bicycle owns_television owns_solar_panel owns_table owns_cow_cart
##     <dbl>        <dbl>           <dbl>            <dbl>      <dbl>         <dbl>
##  1      1            1               1                1          1             0
##  2      2            1               0                1          1             1
##  3      3            0               0                0          0             0
##  4      4            1               0                1          0             0
##  5      5            0               0                0          0             0
##  6      6            0               0                0          0             0
##  7      7            0               0                0          0             0
##  8      8            1               1                1          1             0
##  9      9            0               1                1          0             0
## 10     10            1               1                1          1             1
## # ℹ 121 more rows
## # ℹ 13 more variables: owns_radio <dbl>, owns_cow_plough <dbl>,
## #   owns_solar_torch <dbl>, owns_mobile_phone <dbl>, owns_motorcyle <dbl>,
## #   owns_None <dbl>, owns_fridge <dbl>, owns_electricity <dbl>,
## #   owns_sofa_set <dbl>, owns_lorry <dbl>, owns_sterio <dbl>,
## #   owns_computer <dbl>, owns_car <dbl>
…
## Rows: 131 Columns: 14
## ── Column specification ────────────────────────────────────────────────────────
## Delimiter: ","
## chr  (7): village, respondent_wall_type, memb_assoc, affect_conflicts, items...
## dbl  (6): key_ID, no_membrs, years_liv, rooms, liv_count, no_meals
## dttm (1): interview_date
## 
## ℹ Use `spec()` to retrieve the full column specification for this data.
## ℹ Specify the column types or set `show_col_types = FALSE` to quiet this message.

## # A tibble: 131 × 43
##    key_ID village  interview_date      no_membrs years_liv respondent_wall_type
##     <dbl> <chr>    <dttm>                  <dbl>     <dbl> <chr>               
##  1      1 God      2016-11-17 00:00:00         3         4 muddaub             
##  2      2 God      2016-11-17 00:00:00         7         9 muddaub             
##  3      3 God      2016-11-17 00:00:00        10        15 burntbricks         
##  4      4 God      2016-11-17 00:00:00         7         6 burntbricks         
##  5      5 God      2016-11-17 00:00:00         7        40 burntbricks         
##  6      6 God      2016-11-17 00:00:00         3         3 muddaub             
##  7      7 God      2016-11-17 00:00:00         6        38 muddaub             
##  8      8 Chirodzo 2016-11-16 00:00:00        12        70 burntbricks         
##  9      9 Chirodzo 2016-11-16 00:00:00         8         6 burntbricks         
## 10     10 Chirodzo 2016-12-16 00:00:00        12        23 burntbricks         
## # ℹ 121 more rows
## # ℹ 37 more variables: rooms <dbl>, memb_assoc <chr>, affect_conflicts <chr>,
## #   liv_count <dbl>, no_meals <dbl>, instanceID <chr>, owns_bicycle <dbl>,
## #   owns_television <dbl>, owns_solar_panel <dbl>, owns_table <dbl>,
## #   owns_cow_cart <dbl>, owns_radio <dbl>, owns_cow_plough <dbl>,
## #   owns_solar_torch <dbl>, owns_mobile_phone <dbl>, owns_motorcyle <dbl>,
## #   owns_None <dbl>, owns_fridge <dbl>, owns_electricity <dbl>, …
…
