Estimating and reporting | R Cookbook for reproducible social science
…
summstats

## # A tibble: 21 × 9
##    Treatment    Variable            n nmiss   mean     sd   min   max   iqr
##    <fct>        <chr>           <int> <int>  <dbl>  <dbl> <dbl> <dbl> <dbl>
##  1 "  Control"  no_membrs          82     0  6.96   2.86      2    15  3.75
##  2 "  Control"  years_liv          82     0 21.9   14.9       1    70 13.8 
##  3 "  Control"  rooms              82     0  1.74   1.17      1     8  1   
##  4 "  Control"  liv_count          82     0  2.24   1.01      1     4  2   
##  5 "  Control"  no_meals           82     0  2.59   0.496     2     3  1   
##  6 "  Control"  educated           82     0  0.293  0.458     0     1  1   
##  7 "  Control"  uses_fertilizer    82     0  0.244  0.432     0     1  0   
##  8 " Treatment" no_membrs          49     0  7.57   3.64      2    19  5   
##  9 " Treatment" years_liv          49     0 24.9   19.8       2    96 22   
## 10 " Treatment" rooms              49     0  1.73   0.953     1     4  1   
## # ℹ 11 more rows
…
